org\baeldung\persistence\model\BaeldungArticle.class
org\baeldung\AppConfig.class
org\baeldung\persistence\service\impl\BaeldungArticleManagerImpl.class
org\baeldung\persistence\dao\BaeldungArticleRepository.class
org\baeldung\App.class
org\baeldung\HelloController.class
org\baeldung\persistence\service\BaeldungArticleManager.class
